{
    "current_page": 1,
    "total_pages": 1000,
    "total_items": 55697,
    "photos": [
               {
               "id": 230200366,
               "name": "Best Photo 1",
               "description": "Not a missing description",
               "created_at": "2017-10-01T10:23:31-04:00",
               "image_url": "https://images.pexels.com/photos/248797/pexels-photo-248797.jpeg?auto=compress&cs=tinysrgb&dpr=2&h=750&w=1260",
               "for_sale": true
               },
               {
               "id": 230200367,
               "name": "Best Photo 2",
               "description": "description",
               "created_at": "2017-10-01T10:23:31-04:00",
               "image_url": "https://images.pexels.com/photos/155246/pexels-photo-155246.jpeg?auto=compress&cs=tinysrgb&dpr=2&h=750&w=1260",
               "for_sale": false
               },
               {
               "id": 230200368,
               "name": "Best Photo 3",
               "description": "asdfdgfhgfcxfshsergtdz aesrgd",
               "created_at": "2017-10-01T10:23:31-04:00",
               "image_url": "https://images.pexels.com/photos/127073/pexels-photo-127073.jpeg?auto=compress&cs=tinysrgb&dpr=2&h=750&w=1260",
               "for_sale": true
               },
               {
               "id": 230200369,
               "name": "Best Photo 4",
               "description": "",
               "created_at": "2017-10-01T10:23:31-04:00",
               "image_url": "https://images.pexels.com/photos/158136/greece-holidays-holiday-summer-158136.jpeg?auto=compress&cs=tinysrgb&dpr=2&h=750&w=1260",
               "for_sale": false
               },
               {
               "id": 230200335,
               "name": "vienna.street",
               "description": "shooting in vienna",
               "created_at": "2017-10-01T10:23:31-04:00",
               "image_url": "https://drscdn.500px.org/photo/230200335/w%3D280_h%3D280/v2?client_application_id=11&user_id=824357&webp=true&v=0&sig=87c378f20802362700eba08bf18c5ac001b5fa4a67c90b613b38b7fe7138bd8c",
               "for_sale": true
               },
               {
               "id": 230200211,
               "name": "couple",
               "description": "",
               "created_at": "2017-10-01T10:22:21-04:00",
               "image_url": "https://drscdn.500px.org/photo/230200211/w%3D280_h%3D280/v2?client_application_id=11&user_id=824357&webp=true&v=0&sig=c796aff929af05b516b157f40c37336212a830d5a61b4aac1167bf77b1be4ef2",
               "for_sale": true
               },
               {
               "id": 230200149,
               "name": "Юля",
               "description": "Я на других ресурсах: \n<a href=\"http://instagram.com/pavel_vozmischev\">Inst</a> | <a href=\"http://vk.com/pavel_vozmischev\">VK</a> | <a href=\"https://www.facebook.com/vozmischev\">FB</a> | <a href=\"http://pavel-vozmischev.com\">VP</a>",
               "created_at": "2017-10-01T10:21:36-04:00",
               "image_url": "https://drscdn.500px.org/photo/230200149/w%3D280_h%3D280/v2?client_application_id=11&user_id=824357&webp=true&v=0&sig=131588fff224249a1dca3488d619d1a504a8f47dce34113fe3607bb7c86048e9",
               "for_sale": true
               },
               {
               "id": 230200075,
               "name": "632",
               "description": "",
               "created_at": "2017-10-01T10:21:00-04:00",
               "image_url": "https://drscdn.500px.org/photo/230200075/w%3D280_h%3D280/v2?client_application_id=11&user_id=824357&webp=true&v=0&sig=70dab705c64748e6be482b8b3425d2bc95415396a6686debdd9a3449c3d8bfbd",
               "for_sale": false
               },
               {
               "id": 230200041,
               "name": "单诗涵 国家大剧院 北京",
               "description": "",
               "created_at": "2017-10-01T10:20:40-04:00",
               "image_url": "https://drscdn.500px.org/photo/230200041/w%3D280_h%3D280/v2?client_application_id=11&user_id=824357&webp=true&v=0&sig=78bd445b719b21652a68d675900a79f7c1eef3f90ebaf069d5ef5663c1ca227d",
               "for_sale": false
               },
               {
               "id": 230200027,
               "name": "锦绣中华壮美山川之二",
               "description": "",
               "created_at": "2017-10-01T10:20:26-04:00",
               "image_url": "https://drscdn.500px.org/photo/230200027/w%3D280_h%3D280/v2?client_application_id=11&user_id=824357&webp=true&v=0&sig=509209b7b5c52cfcf6d485916ec51773ae25b7a73618476c48cc1456b830e836",
               "for_sale": false
               },
               {
               "id": 230200025,
               "name": "Untitled",
               "description": "",
               "created_at": "2017-10-01T10:20:25-04:00",
               "image_url": "https://drscdn.500px.org/photo/230200025/w%3D280_h%3D280/v2?client_application_id=11&user_id=824357&webp=true&v=0&sig=d0e8cd59481ba94424726347be528401ea6a46a5ae480371a1fba71ee6c8d937",
               "for_sale": false
               },
               {
               "id": 230199989,
               "name": "Jatiluwih Rice Terraces, Bali",
               "description": "",
               "created_at": "2017-10-01T10:20:04-04:00",
               "image_url": "https://drscdn.500px.org/photo/230199989/w%3D280_h%3D280/v2?client_application_id=11&user_id=824357&webp=true&v=0&sig=2de8c648c7f718deb8902ddb53402d5c3a0f6bacdeff7fdb23e3abee2c67830a",
               "for_sale": false
               },
               {
               "id": 230199983,
               "name": "sea, my sea",
               "description": "There is no description here",
               "created_at": "2017-10-01T10:19:56-04:00",
               "image_url": "https://drscdn.500px.org/photo/230199983/w%3D280_h%3D280/v2?client_application_id=11&user_id=824357&webp=true&v=0&sig=294ed4b81b95be63639841c7e8bb310812db366dd9537c6500ed9de4d558f13a",
               "for_sale": false
               },
               {
               "id": 230199965,
               "name": "Untitled",
               "description": "",
               "created_at": "2017-10-01T10:19:38-04:00",
               "image_url": "https://drscdn.500px.org/photo/230199965/w%3D280_h%3D280/v2?client_application_id=11&user_id=824357&webp=true&v=0&sig=1719dd13a24f4a7146aad5d3727ea380ed704f6b9681b3aa552abf776254b180",
               "for_sale": false
               },
               {
               "id": 230199959,
               "name": "korea restaurant 韩国餐厅",
               "description": "",
               "created_at": "2017-10-01T10:19:31-04:00",
               "image_url": "https://drscdn.500px.org/photo/230199959/w%3D280_h%3D280/v2?client_application_id=11&user_id=824357&webp=true&v=0&sig=514948ffe9045a45eaa13a3b576c64f7a5e7a5d090ab7580fbbeeb166102e174",
               "for_sale": false
               },
               {
               "id": 230199957,
               "name": "构成",
               "description": "",
               "created_at": "2017-10-01T10:19:29-04:00",
               "image_url": "https://drscdn.500px.org/photo/230199957/w%3D280_h%3D280/v2?client_application_id=11&user_id=824357&webp=true&v=0&sig=99c7c98c2f013a7428b5df6a038e38ecdd717fc77294b9f98fbc979e14c4036e",
               "for_sale": true
               },
               {
               "id": 230199955,
               "name": "Black beach",
               "description": "",
               "created_at": "2017-10-01T10:19:29-04:00",
               "image_url": "https://drscdn.500px.org/photo/230199955/w%3D280_h%3D280/v2?client_application_id=11&user_id=824357&webp=true&v=0&sig=f1bd858fc6fbf1423f7ad71ad9dd00d4166c297802564e491249e939ce1bdd9c",
               "for_sale": false
               },
               {
               "id": 230199953,
               "name": "Untitled",
               "description": "",
               "created_at": "2017-10-01T10:19:27-04:00",
               "image_url": "https://drscdn.500px.org/photo/230199953/w%3D280_h%3D280/v2?client_application_id=11&user_id=824357&webp=true&v=0&sig=b3fd35b87b0d17d66b75b2e3932da9faf42dc7b06d045e2a027fcc3361f4127c",
               "for_sale": false
               },
               {
               "id": 230199951,
               "name": "Villaggio Di Pescatori",
               "description": "",
               "created_at": "2017-10-01T10:19:26-04:00",
               "image_url": "https://drscdn.500px.org/photo/230199951/w%3D280_h%3D280/v2?client_application_id=11&user_id=824357&webp=true&v=0&sig=142142a4acd749a815f3bfdbcacede74fa1a7624386db0dde6cba343b89a7b0c",
               "for_sale": false
               },
               {
               "id": 230199935,
               "name": "Moose Bog",
               "description": "New Hampshire",
               "created_at": "2017-10-01T10:19:16-04:00",
               "image_url": "https://drscdn.500px.org/photo/230199935/w%3D280_h%3D280/v2?client_application_id=11&user_id=824357&webp=true&v=0&sig=342ad6f4b6310870227218367e52aaaaa0f9f69da4f757761ad2f3cdb8a2cd6d",
               "for_sale": false
               },
               {
               "id": 230199929,
               "name": "徐敏-外白渡桥-上海外滩",
               "description": "",
               "created_at": "2017-10-01T10:19:13-04:00",
               "image_url": "https://drscdn.500px.org/photo/230199929/w%3D280_h%3D280/v2?client_application_id=11&user_id=824357&webp=true&v=0&sig=d21d772ac8eaca42b95dd05aea6ae92608cf5ecdd03e73db7003707773c0c949",
               "for_sale": false
               },
               {
               "id": 230199917,
               "name": "Whirlpool",
               "description": "",
               "created_at": "2017-10-01T10:19:04-04:00",
               "image_url": "https://drscdn.500px.org/photo/230199917/w%3D280_h%3D280/v2?client_application_id=11&user_id=824357&webp=true&v=0&sig=e80cd612eb632b82431c024c21f25988880f5b666000e9a0a3c1dcebf5153b1b",
               "for_sale": false
               },
               {
               "id": 230199915,
               "name": "Flowering heath",
               "description": "",
               "created_at": "2017-10-01T10:19:03-04:00",
               "image_url": "https://drscdn.500px.org/photo/230199915/w%3D280_h%3D280/v2?client_application_id=11&user_id=824357&webp=true&v=0&sig=dd0218b063b2205834f48f7b7e6519ea0816e4c6a6c184f5860352d930d5d472",
               "for_sale": false
               },
               {
               "id": 230199905,
               "name": "Untitled",
               "description": "",
               "created_at": "2017-10-01T10:19:02-04:00",
               "image_url": "https://drscdn.500px.org/photo/230199905/w%3D280_h%3D280/v2?client_application_id=11&user_id=824357&webp=true&v=0&sig=feaafaf9d3619e021d36b9cef0fa06f36093f48f81b71fffb95361febb2717dd",
               "for_sale": false
               }
               ],
    "filters": {
        "category": false,
        "exclude": false
    },
    "feature": "popular"
}
